{
  "project_info": {
    "project_number": "263293133634",
    "firebase_url": "https://mc-trainer-85c5b-default-rtdb.europe-west1.firebasedatabase.app",
    "project_id": "mc-trainer-85c5b",
    "storage_bucket": "mc-trainer-85c5b.appspot.com"
  },
  "client": [
    {
      "client_info": {
        "mobilesdk_app_id": "1:263293133634:android:d31ede5aad4d173e6fdedb",
        "android_client_info": {
          "package_name": "com.androidp.mc_trainer"
        }
      },
      "oauth_client": [
        {
          "client_id": "263293133634-5rmatpacpc0bsum5891qcnit3c6vv5cd.apps.googleusercontent.com",
          "client_type": 3
        }
      ],
      "api_key": [
        {
          "current_key": "AIzaSyASljRUykLUq7SkwzJfOxmvfNXIpOw55PI"
        }
      ],
      "services": {
        "appinvite_service": {
          "other_platform_oauth_client": [
            {
              "client_id": "263293133634-5rmatpacpc0bsum5891qcnit3c6vv5cd.apps.googleusercontent.com",
              "client_type": 3
            }
          ]
        }
      }
    },
    {
      "client_info": {
        "mobilesdk_app_id": "1:263293133634:android:6d342d4b909b98f86fdedb",
        "android_client_info": {
          "package_name": "com.androidp.mc_trainer_backend"
        }
      },
      "oauth_client": [
        {
          "client_id": "263293133634-5rmatpacpc0bsum5891qcnit3c6vv5cd.apps.googleusercontent.com",
          "client_type": 3
        }
      ],
      "api_key": [
        {
          "current_key": "AIzaSyASljRUykLUq7SkwzJfOxmvfNXIpOw55PI"
        }
      ],
      "services": {
        "appinvite_service": {
          "other_platform_oauth_client": [
            {
              "client_id": "263293133634-5rmatpacpc0bsum5891qcnit3c6vv5cd.apps.googleusercontent.com",
              "client_type": 3
            }
          ]
        }
      }
    }
  ],
  "configuration_version": "1"
}